<svg xmlns="http://www.w3.org/2000/svg" viewBox="0 0 800 400">
  <!-- Background -->
  <rect width="800" height="400" fill="#f8fafc" />
  
  <!-- Level 1: Context -->
  <rect x="50" y="50" width="700" height="300" rx="8" fill="#e2e8f0" stroke="#64748b" stroke-width="2"/>
  <text x="70" y="85" font-family="Arial" font-size="24" fill="#334155">Context</text>
  
  <!-- Level 2: Container -->
  <rect x="100" y="100" width="600" height="200" rx="8" fill="#cbd5e1" stroke="#64748b" stroke-width="2"/>
  <text x="120" y="135" font-family="Arial" font-size="20" fill="#334155">Container</text>
  
  <!-- Level 3: Component -->
  <rect x="150" y="150" width="500" height="100" rx="8" fill="#94a3b8" stroke="#64748b" stroke-width="2"/>
  <text x="170" y="185" font-family="Arial" font-size="16" fill="#f8fafc">Component</text>
  
  <!-- Level 4: Code -->
  <rect x="200" y="180" width="400" height="40" rx="8" fill="#475569" stroke="#64748b" stroke-width="2"/>
  <text x="220" y="205" font-family="Arial" font-size="14" fill="#f8fafc">Code</text>
  
  <!-- Title -->
  <text x="400" y="350" font-family="Arial" font-size="28" fill="#334155" text-anchor="middle" font-weight="bold">C4 Architecture Model</text>
  
  <!-- Connecting lines -->
  <path d="M 750 200 L 770 200 L 770 180 L 750 180" fill="none" stroke="#64748b" stroke-width="2"/>
  <path d="M 700 200 L 720 200 L 720 180 L 700 180" fill="none" stroke="#64748b" stroke-width="2"/>
  <path d="M 650 200 L 670 200 L 670 180 L 650 180" fill="none" stroke="#64748b" stroke-width="2"/>
</svg>
